<?xml version="1.0" encoding="UTF-8" standalone="no"?>
<svg
   version="1.1"
   id="svg10"
   width="145.45454"
   height="145.45454"
   viewBox="0 0 145.45454 145.45454"
   sodipodi:docname="warsquid_icon.svg"
   inkscape:version="1.1 (c68e22c387, 2021-05-23)"
   inkscape:export-filename="/home/marius/SpiderOak Hive/Images/warsquid_mono_transparent.png"
   inkscape:export-xdpi="168.96001"
   inkscape:export-ydpi="168.96001"
   xmlns:inkscape="http://www.inkscape.org/namespaces/inkscape"
   xmlns:sodipodi="http://sodipodi.sourceforge.net/DTD/sodipodi-0.dtd"
   xmlns="http://www.w3.org/2000/svg"
   xmlns:svg="http://www.w3.org/2000/svg"
   xmlns:rdf="http://www.w3.org/1999/02/22-rdf-syntax-ns#"
   xmlns:cc="http://creativecommons.org/ns#"
   xmlns:dc="http://purl.org/dc/elements/1.1/">
  <metadata
     id="metadata16">
    <rdf:RDF>
      <cc:Work
         rdf:about="">
        <dc:format>image/svg+xml</dc:format>
        <dc:type
           rdf:resource="http://purl.org/dc/dcmitype/StillImage" />
      </cc:Work>
    </rdf:RDF>
  </metadata>
  <defs
     id="defs14" />
  <sodipodi:namedview
     pagecolor="#ffffff"
     bordercolor="#666666"
     borderopacity="1"
     objecttolerance="10"
     gridtolerance="10"
     guidetolerance="10"
     inkscape:pageopacity="0"
     inkscape:pageshadow="2"
     inkscape:window-width="2560"
     inkscape:window-height="1376"
     id="namedview12"
     showgrid="false"
     inkscape:zoom="4.998125"
     inkscape:cx="-12.804802"
     inkscape:cy="64.924347"
     inkscape:window-x="0"
     inkscape:window-y="27"
     inkscape:window-maximized="1"
     inkscape:current-layer="g18"
     inkscape:document-rotation="0"
     inkscape:pagecheckerboard="true" />
  <g
     inkscape:groupmode="layer"
     id="layer1"
     inkscape:label="Background"
     style="display:none">
    <circle
       style="fill:#000000;fill-opacity:1;fill-rule:evenodd;stroke:#ffffff;stroke-opacity:1"
       id="path24"
       cx="73.151695"
       cy="73.293175"
       r="71.226707" />
  </g>
  <g
     inkscape:groupmode="layer"
     inkscape:label="Image"
     id="g18">
    <circle
       style="display:inline;fill:none;fill-opacity:1;fill-rule:evenodd;stroke:#ffffff;stroke-opacity:1"
       id="path24-3"
       cx="74.0028"
       cy="73.626266"
       r="71.226707" />
    <path
       style="fill:#ffffff;stroke-width:0.363636;fill-opacity:1;stroke:none;stroke-opacity:1"
       d="m 85.41429,18.361374 c 1.19332,-1.231196 1.19332,-1.231196 -0.911488,-3.727273 -3.134847,-3.717587 -5.957348,-6.295788 -5.957348,-5.44171 0,0.0799 0.545989,0.956613 1.213309,1.948246 0.66732,0.991633 1.853683,3.295251 2.636363,5.119149 0.78268,1.823899 1.51368,3.319916 1.624447,3.324481 0.110768,0.0046 0.738389,-0.545736 1.394717,-1.222893 z"
       id="path943" />
    <path
       style="fill:#ffffff;stroke-width:0.363636;fill-opacity:1;stroke:none;stroke-opacity:1"
       d="m 63.059418,16.259786 c 0.78268,-1.823898 1.969043,-4.127516 2.636363,-5.119149 0.66732,-0.991633 1.213309,-1.868344 1.213309,-1.948246 0,-0.854078 -2.822501,1.724123 -5.957348,5.44171 -2.104808,2.496077 -2.104808,2.496077 -0.911488,3.727273 0.656328,0.677157 1.283949,1.227459 1.394717,1.222893 0.110767,-0.0046 0.841767,-1.500582 1.624447,-3.324481 z"
       id="path941" />
    <path
       style="fill:#ffffff;stroke-width:0.363636;fill-opacity:1;stroke:none;stroke-opacity:1"
       d="m 89.362893,26.381312 1.867051,-1.93853 -1.848429,-2.879652 c -1.016633,-1.583808 -1.908716,-2.949541 -1.9824,-3.03496 -0.07369,-0.08542 -0.591222,0.282762 -1.15008,0.818181 -0.558858,0.53542 -1.211694,0.97349 -1.450753,0.97349 -0.554418,0 -0.546156,0.179928 0.06345,1.381695 0.405124,0.798649 1.470982,3.726306 2.244011,6.16376 0.205542,0.648104 0.200447,0.651455 2.25715,-1.483984 z"
       id="path939" />
    <path
       style="fill:#ffffff;stroke-width:0.363636;fill-opacity:1;stroke:none;stroke-opacity:1"
       d="m 58.913174,26.138023 c 0.2718,-0.9 0.872982,-2.515816 1.335957,-3.590702 0.980185,-2.275677 0.971378,-2.22748 0.407131,-2.22748 -0.239059,0 -0.891895,-0.43807 -1.450753,-0.97349 -0.558858,-0.535419 -1.076393,-0.903601 -1.15008,-0.818181 -0.07368,0.08542 -0.965767,1.451152 -1.9824,3.03496 l -1.848429,2.879652 1.868262,1.939786 c 2.049643,2.128109 2.105232,2.123289 2.820312,-0.244545 z"
       id="path937" />
    <path
       style="fill:#ffffff;stroke-width:0.363636;fill-opacity:1;stroke:none;stroke-opacity:1"
       d="m 95.621937,32.215865 c 0.0079,-0.157187 -0.826044,-1.723706 -1.853284,-3.481154 l -1.867709,-3.195359 -2.089611,2.148765 c -2.089611,2.148765 -2.089611,2.148765 -1.573727,4.208426 0.283734,1.132814 0.866142,3.024465 1.29424,4.203669 l 0.77836,2.144007 2.648651,-2.87128 c 1.45676,-1.579204 2.655145,-2.999887 2.66308,-3.157074 z"
       id="path935" />
    <path
       style="fill:#ffffff;stroke-width:0.363636;fill-opacity:1;stroke:none;stroke-opacity:1"
       d="m 57.047433,32.493058 c 0.68148,-2.660196 0.68148,-2.660196 -1.406179,-4.806951 L 53.5536,25.539352 51.685891,28.734711 c -1.02724,1.757448 -1.867709,3.297755 -1.867709,3.422906 0,0.12515 1.181869,1.536447 2.626378,3.136214 2.626378,2.908669 2.626378,2.908669 3.273887,1.384046 0.356127,-0.838543 0.954175,-2.721712 1.328986,-4.184819 z"
       id="path933" />
    <path
       style="fill:#ffffff;stroke-width:0.363636;fill-opacity:1;stroke:none;stroke-opacity:1"
       d="m 95.84714,46.501659 c 0.468066,-0.7 1.675469,-2.172727 2.68312,-3.272727 1.007647,-1.1 1.83237,-2.220266 1.83273,-2.48948 3.6e-4,-0.412553 -2.541999,-5.313361 -3.587188,-6.914395 -0.246945,-0.378268 -0.69744,-0.07877 -1.913044,1.271826 -0.874516,0.971636 -2.211196,2.350204 -2.970392,3.063485 -1.233989,1.159353 -1.341476,1.399153 -1.013644,2.261422 0.201698,0.530505 0.712957,2.48368 1.136131,4.340392 1.187738,5.211306 0.99456,4.849717 2.063029,3.86148 0.505022,-0.467102 1.301189,-1.422003 1.769258,-2.122003 z"
       id="path931" />
    <path
       style="fill:#ffffff;stroke-width:0.363636;fill-opacity:1;stroke:none;stroke-opacity:1"
       d="m 53.302615,45.278997 c 0.48648,-2.109171 1.054476,-4.281909 1.262218,-4.828305 0.341603,-0.898484 0.24576,-1.117418 -1.002655,-2.290324 -0.759196,-0.713281 -2.095876,-2.091849 -2.970392,-3.063485 -1.215604,-1.350595 -1.666099,-1.650094 -1.913044,-1.271826 -1.061465,1.625966 -3.587833,6.505362 -3.587833,6.929504 0,0.277527 0.975168,1.561429 2.16704,2.853116 1.191869,1.291691 2.173688,2.470782 2.181818,2.620207 0.02204,0.405226 2.636844,3.227469 2.820284,3.044029 0.08693,-0.08693 0.556084,-1.883745 1.042564,-3.992916 z"
       id="path929" />
    <path
       style="fill:#ffffff;stroke-width:0.363636;fill-opacity:1;stroke:none;stroke-opacity:1"
       d="m 99.686527,68.559374 c 1.636283,-0.650923 1.689753,-0.721767 1.921073,-2.545454 0.45148,-3.5594 1.7784,-5.69408 3.53944,-5.69408 0.34665,0 0.49211,-0.556625 0.49889,-1.909091 0.005,-1.05 0.14574,-2.359091 0.31215,-2.909091 0.29038,-0.959691 0.25064,-1 -0.9859,-1 -4.53103,0 -8.244909,5.342862 -8.244909,11.861295 0,1.364923 0.604524,3.163218 1.003938,2.986443 0.149709,-0.06625 1.0296,-0.421767 1.955318,-0.790022 z"
       id="path923" />
    <path
       style="fill:#ffffff;stroke-width:0.363636;fill-opacity:1;stroke:none;stroke-opacity:1"
       d="m 48.515924,67.969062 c 0.487345,-1.699277 -0.273578,-6.471331 -1.375826,-8.628317 -1.599952,-3.130948 -3.95005,-4.839087 -6.657738,-4.839087 -1.236538,0 -1.276276,0.04031 -0.985898,1 0.166415,0.55 0.306884,1.859091 0.312146,2.909091 0.0068,1.352466 0.152243,1.909091 0.498894,1.909091 1.757589,0 3.088135,2.135342 3.537124,5.676603 0.22696,1.790077 0.297676,1.885626 1.922774,2.598051 2.096495,0.91908 2.32016,0.868186 2.748524,-0.625432 z"
       id="path921" />
    <path
       style="fill:#ffffff;stroke-width:0.363636;fill-opacity:1;stroke:none;stroke-opacity:1"
       d="m 109.88103,68.826131 c 3.67263,-3.449542 3.12637,-10.332989 -1.03647,-13.060582 -1.28624,-0.842782 -1.91575,-0.145963 -2.17985,2.412931 -0.20072,1.944815 -0.18648,1.981731 0.96934,2.512135 1.79233,0.822498 2.3499,2.026778 1.83085,3.954374 -0.48558,1.803342 -2.5436,3.951749 -4.10127,4.2814 -2.13543,0.451927 -0.90541,1.249723 1.65337,1.072378 1.32113,-0.09156 2.01591,-0.376033 2.86403,-1.172636 z"
       id="path919" />
    <path
       style="fill:#ffffff;stroke-width:0.363636;fill-opacity:1;stroke:none;stroke-opacity:1"
       d="m 40.515713,69.917298 c 0.871251,-0.334331 0.691011,-0.754767 -0.424803,-0.990909 -1.557666,-0.329651 -3.615684,-2.478058 -4.101273,-4.2814 -0.519048,-1.927596 0.03853,-3.131876 1.830854,-3.954374 1.155819,-0.530404 1.170062,-0.56732 0.969339,-2.512135 -0.264099,-2.558894 -0.893608,-3.255713 -2.179851,-2.412931 -5.64089,3.696051 -4.042439,14.224963 2.178462,14.349422 0.633643,0.01269 1.410916,-0.07627 1.727272,-0.197673 z"
       id="path917" />
    <path
       style="fill:#ffffff;stroke-width:0.363636;fill-opacity:1;stroke:none;stroke-opacity:1"
       d="m 130.17457,70.592003 c 2.50145,-1.256774 3.83483,-4.804432 2.9348,-7.808465 -0.84414,-2.817491 -4.96211,-6.100062 -7.65249,-6.100062 -1.11192,0 -1.11192,0 -0.55713,1.072851 0.30513,0.590069 0.55479,1.401942 0.55479,1.804168 0,0.542647 0.36668,0.830047 1.42133,1.114036 1.47021,0.395887 3.40093,2.225996 3.85385,3.653029 0.62962,1.983782 -1.74533,6.174098 -3.49931,6.174098 -0.37673,0 -0.68496,0.163636 -0.68496,0.363636 0,0.586502 2.25593,0.416618 3.62912,-0.273291 z"
       id="path915" />
    <path
       style="fill:#ffffff;stroke-width:0.363636;fill-opacity:1;stroke:none;stroke-opacity:1"
       d="m 18.909094,70.865294 c 0,-0.2 -0.30823,-0.363636 -0.68496,-0.363636 -1.75398,0 -4.12894,-4.190316 -3.49931,-6.174098 0.45292,-1.427033 2.38364,-3.257142 3.85385,-3.653029 1.05465,-0.283989 1.42133,-0.571389 1.42133,-1.114036 0,-0.402226 0.24965,-1.214099 0.55479,-1.804168 0.55479,-1.072851 0.55479,-1.072851 -0.55713,-1.072851 -2.69039,0 -6.80835,3.282571 -7.65249,6.100062 -0.90003,3.004033 0.43335,6.551691 2.9348,7.808465 1.37319,0.689909 3.62912,0.859793 3.62912,0.273291 z"
       id="path913" />
    <path
       style="fill:#ffffff;stroke-width:0.363636;fill-opacity:1;stroke:none;stroke-opacity:1"
       d="m 124.41438,76.319839 c 1.28686,0 1.29875,0.122589 -0.23853,-2.458065 -3.52606,-5.919211 -3.88349,-12.598952 -0.71671,-13.393763 1.09803,-0.275586 1.1449,-1.022124 0.16507,-2.62924 -0.84651,-1.388454 -1.86687,-1.374044 -4.51923,0.06382 -4.07568,2.209444 -4.11378,5.432502 -0.18211,15.404094 1.87689,4.760225 1.87689,4.760225 3.16411,3.886691 0.70798,-0.480444 1.75531,-0.873535 2.3274,-0.873535 z"
       id="path911" />
    <path
       style="fill:#ffffff;stroke-width:0.363636;fill-opacity:1;stroke:none;stroke-opacity:1"
       d="m 27.522054,70.698272 c 2.825628,-7.50905 2.524868,-10.791327 -1.17249,-12.795683 -2.65237,-1.437862 -3.67273,-1.452272 -4.51924,-0.06382 -0.97982,1.607116 -0.93295,2.353654 0.16508,2.62924 3.19787,0.802614 2.84396,7.416451 -0.71671,13.393763 -1.53701,2.580189 -1.52501,2.458065 -0.24156,2.458065 0.57042,0 1.59315,0.381666 2.27273,0.848149 1.44599,0.992568 1.34688,1.14479 4.21219,-6.469716 z"
       id="path909" />
    <path
       style="fill:#ffffff;stroke-width:0.363636;fill-opacity:1;stroke:none;stroke-opacity:1"
       d="m 72.727272,78.683476 c 1.3,0 2.950869,0.125189 3.6686,0.278196 1.30496,0.2782 1.30496,0.2782 2.05508,-2.181818 0.412563,-1.353007 1.108363,-3.360014 1.546222,-4.460014 2.808032,-7.054433 2.729799,-7.506335 -2.542629,-14.68752 -4.471586,-6.090414 -4.98296,-6.090414 -9.454546,0 -5.272428,7.181185 -5.350661,7.633087 -2.542629,14.68752 0.437859,1.1 1.133659,3.107007 1.546222,4.460014 0.75012,2.460018 0.75012,2.460018 2.05508,2.181818 0.717731,-0.153007 2.3686,-0.278196 3.6686,-0.278196 z"
       id="path907" />
    <path
       style="fill:#ffffff;stroke-width:0.363636;fill-opacity:1;stroke:none;stroke-opacity:1"
       d="m 105.90127,80.047112 c 1.15441,-0.894124 2.826,-2.916011 2.826,-3.418222 0,-0.105269 -1.29695,-1.196716 -2.88211,-2.42544 -1.64599,-1.275869 -3.22932,-2.8518 -3.69164,-3.674385 -0.80951,-1.440342 -0.80951,-1.440342 -2.194303,-0.733876 -0.76163,0.38856 -1.720779,0.706469 -2.13143,0.706469 -0.709407,0 -0.720629,0.06225 -0.224985,1.248491 0.286905,0.686669 1.312796,2.282123 2.279755,3.545454 0.966953,1.263331 2.248043,3.073945 2.846853,4.023585 1.26963,2.01344 1.45669,2.056371 3.17186,0.727924 z"
       id="path905" />
    <path
       style="fill:#ffffff;stroke-width:0.363636;fill-opacity:1;stroke:none;stroke-opacity:1"
       d="m 42.725128,79.319188 c 0.598818,-0.94964 1.879909,-2.760254 2.846861,-4.023585 0.966957,-1.263331 1.992848,-2.858785 2.279753,-3.545454 0.495644,-1.186237 0.484422,-1.248491 -0.224985,-1.248491 -0.410651,0 -1.369797,-0.317909 -2.131429,-0.706469 -1.384793,-0.706466 -1.384793,-0.706466 -2.194309,0.733876 -0.46232,0.822585 -2.045648,2.398516 -3.691633,3.674385 -1.58516,1.228724 -2.882113,2.320171 -2.882113,2.42544 0,0.914706 3.580182,4.419102 4.513102,4.417571 0.217793,-3.56e-4 0.885931,-0.777629 1.484753,-1.727273 z"
       id="path903" />
    <path
       style="fill:#ffffff;stroke-width:0.363636;fill-opacity:1;stroke:none;stroke-opacity:1"
       d="m 65.729272,80.862843 c 0.89656,-1.384091 0.759368,-3.009225 -0.501443,-5.939782 -2.43024,-5.648723 -3.187175,-9.590065 -2.29368,-11.943185 0.213782,-0.563022 1.318327,-2.230294 2.454545,-3.705051 1.136218,-1.474759 2.595953,-3.438396 3.243851,-4.363636 1.634269,-2.333836 2.494996,-2.954985 4.094727,-2.954985 1.599731,0 2.460458,0.621149 4.094727,2.954985 0.647898,0.92524 2.107633,2.888877 3.243851,4.363636 1.136218,1.474757 2.240763,3.142029 2.454545,3.705051 0.893495,2.35312 0.13656,6.294462 -2.29368,11.943185 -1.253912,2.914524 -1.407734,4.609113 -0.533392,5.876127 0.439138,0.63636 0.826276,1.200051 0.860312,1.252651 0.03404,0.0526 0.686469,-0.493425 1.449855,-1.213389 1.593043,-1.502436 2.631392,-1.973156 4.35252,-1.973156 1.126636,0 1.319545,-0.183669 2.578003,-2.454546 0.748135,-1.349999 2.316764,-3.732799 3.48584,-5.295108 1.16908,-1.562309 2.143964,-3.116855 2.166407,-3.454546 0.210033,-3.160225 -0.994185,-12.058617 -2.223763,-16.432163 -0.1968,-0.7 -0.775964,-3.072727 -1.287029,-5.272727 -0.511069,-2.2 -1.657578,-6.299516 -2.547797,-9.110033 -0.890221,-2.810518 -1.618581,-5.271696 -1.618581,-5.469285 0,-0.824737 -2.310749,-7.39602 -3.867087,-10.997186 C 78.481992,9.828431 74.852014,5.573581 71.498185,6.848705 68.915047,7.830812 65.886829,12.34065 62.412541,20.3797 c -1.556338,3.601166 -3.867087,10.172449 -3.867087,10.997186 0,0.197589 -0.72836,2.658767 -1.618581,5.469285 -0.890219,2.810517 -2.036728,6.910033 -2.547797,9.110033 -0.511065,2.2 -1.090229,4.572727 -1.287029,5.272727 -1.228607,4.370095 -2.382258,12.937302 -2.212738,16.432163 0.0164,0.337691 0.986302,1.892237 2.155382,3.454546 1.169076,1.562309 2.737705,3.945109 3.48584,5.295108 1.278105,2.306324 1.437382,2.454546 2.637629,2.454546 1.656967,0 3.564389,0.919683 4.58008,2.208334 1.023109,1.298069 1.012956,1.299146 1.991032,-0.210785 z"
       id="path901" />
    <path
       style="fill:#ffffff;stroke-width:0.363636;fill-opacity:1;stroke:none;stroke-opacity:1"
       d="m 111.01115,92.865293 c 1.11023,-2.686607 1.07913,-8.877621 -0.0616,-12.268777 -0.45341,-1.347826 -0.94709,-2.526437 -1.09707,-2.619135 -0.14999,-0.09269 -0.89082,0.570935 -1.6463,1.474731 -0.75548,0.903796 -1.90938,1.89876 -2.56422,2.211029 -1.19061,0.567764 -1.19061,0.567764 -0.46648,2.612229 0.58484,1.651218 0.67749,2.534084 0.4817,4.589923 -0.13332,1.4 -0.27437,2.94576 -0.31342,3.435026 -0.0882,1.104669 2.28566,2.621441 3.87707,2.477281 0.87243,-0.079 1.15944,-0.38559 1.79035,-1.912307 z"
       id="path887" />
    <path
       style="fill:#ffffff;stroke-width:0.363636;fill-opacity:1;stroke:none;stroke-opacity:1"
       d="m 38.727273,94.02161 c 1.130204,-0.646259 1.438713,-1.03008 1.383538,-1.721291 -0.03905,-0.489266 -0.180094,-2.035026 -0.313421,-3.435026 -0.196288,-2.061054 -0.103422,-2.937919 0.487989,-4.607803 0.730411,-2.062353 0.730411,-2.062353 -0.339237,-2.505414 -0.588305,-0.243684 -1.779221,-1.254211 -2.646476,-2.245615 -1.734194,-1.982443 -1.729098,-1.984345 -2.767247,1.033087 -1.490442,4.332044 -1.367802,8.828338 0.365121,13.386269 0.458652,1.206353 1.827661,1.240593 3.829733,0.09579 z"
       id="path885" />
    <path
       style="fill:#ffffff;stroke-width:0.363636;fill-opacity:1;stroke:none;stroke-opacity:1"
       d="m 127.59917,101.68348 c 2.67618,-8.261107 1.14731,-24.272732 -2.31768,-24.272732 -1.05496,0 -3.26261,0.835622 -3.58476,1.356869 -0.11563,0.187095 0.30137,1.799244 0.92667,3.58256 1.02952,2.93612 1.13964,3.671742 1.16584,7.787844 0.0271,4.257669 -0.4591,7.483639 -1.29207,8.572899 -0.18766,0.2454 0.14586,0.60325 0.89532,0.96064 0.65692,0.31327 1.67598,1.14819 2.26459,1.8554 1.33473,1.60368 1.46976,1.61456 1.94209,0.15652 z"
       id="path879" />
    <path
       style="fill:#ffffff;stroke-width:0.363636;fill-opacity:1;stroke:none;stroke-opacity:1"
       d="m 19.823054,101.45324 c 0.70164,-0.77663 1.7675,-1.61576 2.36858,-1.86474 0.71753,-0.29721 0.98534,-0.5928 0.77977,-0.86067 -0.84626,-1.10275 -1.33337,-4.30628 -1.3061,-8.589809 0.0262,-4.116102 0.13632,-4.851724 1.16584,-7.787844 0.6253,-1.783316 1.0423,-3.395465 0.92667,-3.58256 -0.32215,-0.521247 -2.5298,-1.356869 -3.58476,-1.356869 -3.445,0 -4.94321,15.792054 -2.30279,24.272732 0.45741,1.46911 0.41278,1.47437 1.95279,-0.23024 z"
       id="path877" />
    <path
       style="fill:#ffffff;stroke-width:0.363636;fill-opacity:1;stroke:none;stroke-opacity:1"
       d="m 74.069763,103.21646 c 1.110243,-0.9748 1.459338,-1.08456 2.995836,-0.94183 1.656553,0.15388 1.825985,0.0809 3.567305,-1.53688 1.790859,-1.66379 4.524004,-2.96876 6.210266,-2.96516 0.832691,0.002 0.840261,-0.0355 0.609025,-2.9982 -0.297498,-3.811631 -0.333782,-3.909097 -1.455269,-3.909097 -1.26212,0 -3.39984,-1.14221 -4.700971,-2.511781 -0.874651,-0.920662 -1.095785,-1.512448 -1.223156,-3.273331 -0.234596,-3.243244 -1.405094,-4.492047 -4.774822,-5.094254 -2.071083,-0.37012 -3.070327,-0.37012 -5.14141,0 -3.369728,0.602207 -4.540226,1.85101 -4.774822,5.094254 -0.127371,1.760883 -0.348505,2.352669 -1.223156,3.273331 -1.301131,1.369571 -3.438851,2.511781 -4.700971,2.511781 -1.121487,0 -1.157771,0.09747 -1.455269,3.909097 -0.231236,2.96269 -0.223666,2.99997 0.609025,2.9982 1.686262,-0.004 4.419407,1.30137 6.210266,2.96516 1.743109,1.61942 1.909352,1.69089 3.573792,1.53628 1.547138,-0.14372 1.882353,-0.0378 2.947833,0.93117 1.468269,1.33531 1.219662,1.33428 2.726498,0.0113 z"
       id="path875" />
    <path
       style="fill:#ffffff;stroke-width:0.363636;fill-opacity:1;stroke:none;stroke-opacity:1"
       d="m 97.151137,109.98358 c 3.613153,-1.50968 9.131483,-6.77607 11.034553,-10.53078 1.48591,-2.93164 1.55843,-3.49505 0.45067,-3.50098 -0.45,-0.002 -1.51332,-0.40183 -2.36295,-0.88761 -1.54476,-0.88324 -1.54476,-0.88324 -2.4944,1.05619 -1.27181,2.59738 -3.71601,5.32659 -5.724604,6.39215 -1.524495,0.80875 -1.624524,0.94976 -1.401309,1.97547 0.386967,1.77815 0.244574,3.59703 -0.379539,4.84809 -0.3198,0.64105 -0.532163,1.16555 -0.471916,1.16555 0.06025,0 0.66752,-0.23314 1.349495,-0.51808 z"
       id="path873" />
    <path
       style="fill:#ffffff;stroke-width:0.363636;fill-opacity:1;stroke:none;stroke-opacity:1"
       d="m 49.180986,109.33611 c -0.628484,-1.25983 -0.766077,-3.07001 -0.371539,-4.88809 0.225277,-1.03812 0.141466,-1.18884 -0.901301,-1.62077 -1.729324,-0.71631 -5.05112,-4.25438 -6.181564,-6.58402 -1.000694,-2.06226 -1.000694,-2.06226 -2.545454,-1.17902 -0.849622,0.48578 -1.912946,0.8852 -2.362946,0.88761 -1.10776,0.006 -1.035235,0.56934 0.450666,3.50098 1.852298,3.65454 6.695203,8.37018 10.59517,10.31676 1.896455,0.94657 1.990048,0.91577 1.316968,-0.43345 z"
       id="path871" />
    <path
       style="fill:#ffffff;stroke-width:0.363636;fill-opacity:1;stroke:none;stroke-opacity:1"
       d="m 94.088555,110.55787 c 1.338273,-1.67181 1.589971,-2.30527 1.603371,-4.03526 0.01673,-2.16101 -0.439735,-2.89477 -1.656186,-2.66223 -1.521327,0.29081 -3.477192,-0.96049 -4.846054,-3.10037 -1.227575,-1.91901 -1.309087,-1.97446 -2.639967,-1.79595 -0.755306,0.10131 -1.842527,0.44373 -2.416047,0.76094 -0.57352,0.31721 -1.288219,0.68279 -1.588219,0.81241 -0.3,0.12961 -1.091807,0.86512 -1.75957,1.63447 -1.214117,1.39881 -1.214117,1.39881 0.954541,4.04612 2.792204,3.40847 3.276273,3.82411 5.386662,4.6252 2.180949,0.82787 6.202305,0.66305 6.961469,-0.28533 z"
       id="path869" />
    <path
       style="fill:#ffffff;stroke-width:0.363636;fill-opacity:1;stroke:none;stroke-opacity:1"
       d="m 58.745236,110.69941 c 1.767447,-0.73849 2.285298,-1.20554 4.968884,-4.48141 2.168658,-2.64731 2.168658,-2.64731 0.954541,-4.04612 -0.667763,-0.76935 -1.45957,-1.50486 -1.75957,-1.63447 -0.3,-0.12962 -1.014699,-0.4952 -1.588219,-0.81241 -0.57352,-0.31721 -1.660741,-0.65963 -2.416047,-0.76094 -1.336418,-0.17925 -1.408749,-0.12875 -2.694541,1.88127 -1.403753,2.19442 -3.202171,3.31886 -4.815026,3.01054 -0.989323,-0.18912 -1.476916,0.29011 -1.582029,1.55488 -0.285265,3.43253 1.035575,5.68314 3.459498,5.89471 2.337938,0.20406 3.96484,0.0239 5.472509,-0.60605 z"
       id="path867" />
    <path
       style="fill:#ffffff;stroke-width:0.363636;fill-opacity:1;stroke:none;stroke-opacity:1"
       d="m 82.132988,122.27675 c 1.122316,-0.7861 3.043862,-3.87177 3.879709,-6.23014 0.676793,-1.9096 0.676793,-1.9096 -1.410938,-3.77037 -1.809455,-1.61273 -4.965396,-5.63909 -4.965396,-6.33485 0,-0.69837 -1.5754,-2.28714 -2.429862,-2.45048 -3.594142,-0.68706 -4.910814,4.26436 -2.805047,10.54855 1.277992,3.81388 1.360934,3.95318 3.901847,6.55311 2.421814,2.47806 2.590411,2.5522 3.829687,1.68418 z"
       id="path865" />
    <path
       style="fill:#ffffff;stroke-width:0.363636;fill-opacity:1;stroke:none;stroke-opacity:1"
       d="m 67.151243,120.59257 c 2.540913,-2.59993 2.623855,-2.73923 3.901847,-6.55311 2.105767,-6.28419 0.789095,-11.23561 -2.805047,-10.54855 -0.854462,0.16334 -2.429862,1.75211 -2.429862,2.45048 0,0.69576 -3.155941,4.72212 -4.965396,6.33485 -2.087731,1.86077 -2.087731,1.86077 -1.410938,3.77037 1.2064,3.4039 3.762531,6.81869 5.104113,6.81869 0.211276,0 1.383654,-1.02273 2.605283,-2.27273 z"
       id="path863" />
    <path
       style="fill:#ffffff;stroke-width:0.363636;fill-opacity:1;stroke:none;stroke-opacity:1"
       d="m 112.01989,121.58412 c 5.06587,-3.55517 11.70867,-10.99493 13.69912,-15.34264 0.93264,-2.03715 0.93264,-2.03715 -1.08848,-3.97939 -1.84353,-1.77159 -3.17599,-2.4492 -3.17599,-1.61513 0,0.47015 -2.37349,3.55576 -4.90909,6.38198 -2.53269,2.82295 -7.10877,6.63731 -8.82225,7.35371 -1.16641,0.48766 -1.17603,0.51087 -0.58537,1.41232 0.69593,1.06212 1.5755,4.53438 1.58376,6.25215 0.008,1.57831 0.4851,1.51128 3.2983,-0.463 z"
       id="path861" />
    <path
       style="fill:#ffffff;stroke-width:0.363636;fill-opacity:1;stroke:none;stroke-opacity:1"
       d="m 36.732953,122.04712 c 0.0083,-1.71777 0.887833,-5.19003 1.583764,-6.25215 0.590651,-0.90145 0.581033,-0.92466 -0.585375,-1.41232 -1.713477,-0.7164 -6.289565,-4.53076 -8.822248,-7.35371 -2.5356,-2.82622 -4.90909,-5.91183 -4.90909,-6.38198 0,-0.83407 -1.33246,-0.15646 -3.17599,1.61513 -2.02112,1.94224 -2.02112,1.94224 -1.08848,3.97939 1.99044,4.34771 8.63325,11.78747 13.699115,15.34264 2.813199,1.97428 3.290719,2.04131 3.298304,0.463 z"
       id="path859" />
    <path
       style="fill:#ffffff;stroke-width:0.363636;fill-opacity:1;stroke:none;stroke-opacity:1"
       d="m 102.90909,125.78928 c 4.99656,-1.42768 4.8313,-1.28372 4.60894,-4.01489 -0.21266,-2.61206 -0.72468,-4.61403 -1.42375,-5.56676 -0.43103,-0.58743 -0.66075,-0.57924 -3.91247,0.13945 -4.939313,1.09169 -8.802037,0.88046 -12.097193,-0.66153 -1.590549,-0.74431 -2.448255,-0.98639 -2.448255,-0.691 0,1.03336 -3.036934,6.63272 -4.184305,7.71483 -1.238011,1.16759 -1.238011,1.16759 1.633215,2.31337 4.035959,1.61056 5.392145,1.82613 10.55109,1.67711 3.228545,-0.0933 5.335598,-0.35707 7.272728,-0.91058 z"
       id="path857" />
    <path
       style="fill:#ffffff;stroke-width:0.363636;fill-opacity:1;stroke:none;stroke-opacity:1"
       d="m 55.656047,126.49793 c 1.065426,-0.20205 3.207782,-0.87443 4.760793,-1.49416 2.823658,-1.1268 2.823658,-1.1268 1.585647,-2.29439 -1.147371,-1.08211 -4.184305,-6.68147 -4.184305,-7.71483 0,-0.29539 -0.857706,-0.0533 -2.448255,0.691 -3.295156,1.54199 -7.15788,1.75322 -12.097199,0.66153 -3.251713,-0.71869 -3.481433,-0.72688 -3.912462,-0.13945 -0.699069,0.95273 -1.211095,2.9547 -1.423753,5.56676 -0.223112,2.74044 -0.32532,2.65257 4.608942,3.96231 4.460618,1.18402 9.376269,1.46943 13.110592,0.76123 z"
       id="path855" />
    <g
       id="g965-8"
       transform="matrix(-0.87024516,0,0,0.87024516,137.53204,10.686994)"
       style="stroke:#ffffff;stroke-opacity:1">
      <ellipse
         style="fill:#000000;fill-opacity:1;stroke:#ffffff;stroke-opacity:1"
         id="path960-6"
         cx="59.065567"
         cy="84.884644"
         rx="5.163816"
         ry="4.9516044" />
      <path
         id="path889-8"
         style="fill:#ffffff;fill-opacity:1;stroke:#ffffff;stroke-width:0.363636;stroke-opacity:1"
         d="m 59.361328,79.957031 c -0.566283,0 -0.675781,0.288193 -0.675781,1.783203 0,2.178815 -1.413496,4.307309 -3.080078,4.640625 -0.583491,0.116698 -1.055188,0.396094 -1.048828,0.621094 0.02611,0.92292 2.206015,2.778062 3.251953,2.767578 3.015551,0.12936 3.382857,-0.399117 4.642579,-1.414062 1.016587,-0.819054 1.912109,-2.193264 1.912109,-3.417969 0,-1.870964 -3.123021,-4.980469 -5.001954,-4.980469 z"
         sodipodi:nodetypes="sssccass" />
    </g>
    <g
       id="g965-8-6"
       transform="translate(-0.49516071,-0.14147327)"
       style="stroke:#ffffff;stroke-opacity:1">
      <ellipse
         style="fill:#000000;fill-opacity:1;stroke:#ffffff;stroke-opacity:1"
         id="path960-6-6"
         cx="59.065567"
         cy="84.884644"
         rx="5.163816"
         ry="4.9516044" />
      <path
         id="path889-8-1"
         style="fill:#ffffff;fill-opacity:1;stroke:#ffffff;stroke-width:0.363636;stroke-opacity:1"
         d="m 59.361328,79.957031 c -0.566283,0 -0.675781,0.288193 -0.675781,1.783203 0,2.178815 -1.413496,4.307309 -3.080078,4.640625 -0.583491,0.116698 -1.055188,0.396094 -1.048828,0.621094 0.02611,0.92292 2.206015,2.778062 3.251953,2.767578 3.015551,0.12936 3.382857,-0.399117 4.642579,-1.414062 1.016587,-0.819054 1.912109,-2.193264 1.912109,-3.417969 0,-1.870964 -3.123021,-4.980469 -5.001954,-4.980469 z"
         sodipodi:nodetypes="sssccass" />
    </g>
  </g>
</svg>
